G04 #@! TF.GenerationSoftware,KiCad,Pcbnew,5.0.2-bee76a0~70~ubuntu18.04.1*
G04 #@! TF.CreationDate,2019-02-15T14:22:08+01:00*
G04 #@! TF.ProjectId,Theremin_controller,54686572-656d-4696-9e5f-636f6e74726f,rev?*
G04 #@! TF.SameCoordinates,Original*
G04 #@! TF.FileFunction,Soldermask,Bot*
G04 #@! TF.FilePolarity,Negative*
%FSLAX46Y46*%
G04 Gerber Fmt 4.6, Leading zero omitted, Abs format (unit mm)*
G04 Created by KiCad (PCBNEW 5.0.2-bee76a0~70~ubuntu18.04.1) date 2019-02-15T14:22:08 CET*
%MOMM*%
%LPD*%
G01*
G04 APERTURE LIST*
%ADD10C,0.100000*%
G04 APERTURE END LIST*
D10*
G36*
X38477166Y-85229002D02*
X38477169Y-85229003D01*
X38477170Y-85229003D01*
X38656434Y-85283382D01*
X38656436Y-85283383D01*
X38821646Y-85371690D01*
X38966453Y-85490530D01*
X39085293Y-85635337D01*
X39173600Y-85800547D01*
X39227981Y-85979817D01*
X39246342Y-86166242D01*
X39227981Y-86352667D01*
X39173600Y-86531937D01*
X39085293Y-86697147D01*
X38966453Y-86841954D01*
X38821646Y-86960794D01*
X38821644Y-86960795D01*
X38656434Y-87049102D01*
X38477170Y-87103481D01*
X38477169Y-87103481D01*
X38477166Y-87103482D01*
X38337459Y-87117242D01*
X37444023Y-87117242D01*
X37304316Y-87103482D01*
X37304313Y-87103481D01*
X37304312Y-87103481D01*
X37125048Y-87049102D01*
X36959838Y-86960795D01*
X36959836Y-86960794D01*
X36815029Y-86841954D01*
X36696189Y-86697147D01*
X36607882Y-86531937D01*
X36553501Y-86352667D01*
X36535140Y-86166242D01*
X36553501Y-85979817D01*
X36607882Y-85800547D01*
X36696189Y-85635337D01*
X36815029Y-85490530D01*
X36959836Y-85371690D01*
X37125046Y-85283383D01*
X37125048Y-85283382D01*
X37304312Y-85229003D01*
X37304313Y-85229003D01*
X37304316Y-85229002D01*
X37444023Y-85215242D01*
X38337459Y-85215242D01*
X38477166Y-85229002D01*
X38477166Y-85229002D01*
G37*
G36*
X33527166Y-81529002D02*
X33527169Y-81529003D01*
X33527170Y-81529003D01*
X33706434Y-81583382D01*
X33706436Y-81583383D01*
X33871646Y-81671690D01*
X34016453Y-81790530D01*
X34135293Y-81935337D01*
X34223601Y-82100548D01*
X34277981Y-82279816D01*
X34291741Y-82419525D01*
X34291741Y-83312960D01*
X34277981Y-83452667D01*
X34223600Y-83631937D01*
X34135293Y-83797147D01*
X34016453Y-83941954D01*
X33871645Y-84060796D01*
X33706438Y-84149100D01*
X33706435Y-84149101D01*
X33706433Y-84149102D01*
X33527169Y-84203481D01*
X33527168Y-84203481D01*
X33527165Y-84203482D01*
X33340741Y-84221843D01*
X33154316Y-84203482D01*
X33154313Y-84203481D01*
X33154312Y-84203481D01*
X32975048Y-84149102D01*
X32809838Y-84060795D01*
X32809836Y-84060794D01*
X32665029Y-83941954D01*
X32546187Y-83797146D01*
X32457883Y-83631939D01*
X32403503Y-83452671D01*
X32403502Y-83452670D01*
X32403502Y-83452669D01*
X32403501Y-83452666D01*
X32389741Y-83312959D01*
X32389741Y-82419524D01*
X32403501Y-82279812D01*
X32457881Y-82100551D01*
X32546190Y-81935337D01*
X32665030Y-81790530D01*
X32809837Y-81671690D01*
X32975047Y-81583383D01*
X32975049Y-81583382D01*
X33154313Y-81529003D01*
X33154314Y-81529003D01*
X33154317Y-81529002D01*
X33340741Y-81510641D01*
X33527166Y-81529002D01*
X33527166Y-81529002D01*
G37*
G36*
X40727166Y-78429002D02*
X40727169Y-78429003D01*
X40727170Y-78429003D01*
X40906434Y-78483382D01*
X40906436Y-78483383D01*
X41071646Y-78571690D01*
X41216453Y-78690530D01*
X41335293Y-78835337D01*
X41423601Y-79000548D01*
X41477981Y-79179816D01*
X41491741Y-79319525D01*
X41491741Y-80212960D01*
X41477981Y-80352667D01*
X41423600Y-80531937D01*
X41335293Y-80697147D01*
X41216453Y-80841954D01*
X41071645Y-80960796D01*
X40906438Y-81049100D01*
X40906435Y-81049101D01*
X40906433Y-81049102D01*
X40727169Y-81103481D01*
X40727168Y-81103481D01*
X40727165Y-81103482D01*
X40540741Y-81121843D01*
X40354316Y-81103482D01*
X40354313Y-81103481D01*
X40354312Y-81103481D01*
X40175048Y-81049102D01*
X40009838Y-80960795D01*
X40009836Y-80960794D01*
X39865029Y-80841954D01*
X39746187Y-80697146D01*
X39657883Y-80531939D01*
X39603503Y-80352671D01*
X39603502Y-80352670D01*
X39603502Y-80352669D01*
X39603501Y-80352666D01*
X39589741Y-80212959D01*
X39589741Y-79319524D01*
X39603501Y-79179812D01*
X39657881Y-79000551D01*
X39746190Y-78835337D01*
X39865030Y-78690530D01*
X40009837Y-78571690D01*
X40175047Y-78483383D01*
X40175049Y-78483382D01*
X40354313Y-78429003D01*
X40354314Y-78429003D01*
X40354317Y-78429002D01*
X40540741Y-78410641D01*
X40727166Y-78429002D01*
X40727166Y-78429002D01*
G37*
G36*
X43127166Y-77029002D02*
X43127169Y-77029003D01*
X43127170Y-77029003D01*
X43306434Y-77083382D01*
X43306436Y-77083383D01*
X43471646Y-77171690D01*
X43616453Y-77290530D01*
X43735293Y-77435337D01*
X43823601Y-77600548D01*
X43877981Y-77779816D01*
X43891741Y-77919525D01*
X43891741Y-78812960D01*
X43877981Y-78952667D01*
X43877980Y-78952670D01*
X43877980Y-78952671D01*
X43863457Y-79000548D01*
X43823600Y-79131937D01*
X43735293Y-79297147D01*
X43616453Y-79441954D01*
X43471645Y-79560796D01*
X43306438Y-79649100D01*
X43306435Y-79649101D01*
X43306433Y-79649102D01*
X43127169Y-79703481D01*
X43127168Y-79703481D01*
X43127165Y-79703482D01*
X42940741Y-79721843D01*
X42754316Y-79703482D01*
X42754313Y-79703481D01*
X42754312Y-79703481D01*
X42575048Y-79649102D01*
X42409838Y-79560795D01*
X42409836Y-79560794D01*
X42265029Y-79441954D01*
X42146187Y-79297146D01*
X42057883Y-79131939D01*
X42003503Y-78952671D01*
X42003502Y-78952670D01*
X42003502Y-78952669D01*
X42003501Y-78952666D01*
X41989741Y-78812959D01*
X41989741Y-77919524D01*
X42003501Y-77779812D01*
X42057881Y-77600551D01*
X42146190Y-77435337D01*
X42265030Y-77290530D01*
X42409837Y-77171690D01*
X42575047Y-77083383D01*
X42575049Y-77083382D01*
X42754313Y-77029003D01*
X42754314Y-77029003D01*
X42754317Y-77029002D01*
X42940741Y-77010641D01*
X43127166Y-77029002D01*
X43127166Y-77029002D01*
G37*
G36*
X34477166Y-74229002D02*
X34477169Y-74229003D01*
X34477170Y-74229003D01*
X34656434Y-74283382D01*
X34656436Y-74283383D01*
X34821646Y-74371690D01*
X34966453Y-74490530D01*
X35085293Y-74635337D01*
X35173600Y-74800547D01*
X35227981Y-74979817D01*
X35246342Y-75166242D01*
X35227981Y-75352667D01*
X35173600Y-75531937D01*
X35085293Y-75697147D01*
X34966453Y-75841954D01*
X34821646Y-75960794D01*
X34821644Y-75960795D01*
X34656434Y-76049102D01*
X34477170Y-76103481D01*
X34477169Y-76103481D01*
X34477166Y-76103482D01*
X34337459Y-76117242D01*
X33444023Y-76117242D01*
X33304316Y-76103482D01*
X33304313Y-76103481D01*
X33304312Y-76103481D01*
X33125048Y-76049102D01*
X32959838Y-75960795D01*
X32959836Y-75960794D01*
X32815029Y-75841954D01*
X32696189Y-75697147D01*
X32607882Y-75531937D01*
X32553501Y-75352667D01*
X32535140Y-75166242D01*
X32553501Y-74979817D01*
X32607882Y-74800547D01*
X32696189Y-74635337D01*
X32815029Y-74490530D01*
X32959836Y-74371690D01*
X33125046Y-74283383D01*
X33125048Y-74283382D01*
X33304312Y-74229003D01*
X33304313Y-74229003D01*
X33304316Y-74229002D01*
X33444023Y-74215242D01*
X34337459Y-74215242D01*
X34477166Y-74229002D01*
X34477166Y-74229002D01*
G37*
G36*
X87160721Y-69670174D02*
X87260995Y-69711709D01*
X87351245Y-69772012D01*
X87427988Y-69848755D01*
X87488291Y-69939005D01*
X87529826Y-70039279D01*
X87551000Y-70145730D01*
X87551000Y-70254270D01*
X87529826Y-70360721D01*
X87488291Y-70460995D01*
X87427988Y-70551245D01*
X87351245Y-70627988D01*
X87260995Y-70688291D01*
X87160721Y-70729826D01*
X87054270Y-70751000D01*
X86945730Y-70751000D01*
X86839279Y-70729826D01*
X86739005Y-70688291D01*
X86648755Y-70627988D01*
X86572012Y-70551245D01*
X86511709Y-70460995D01*
X86470174Y-70360721D01*
X86449000Y-70254270D01*
X86449000Y-70145730D01*
X86470174Y-70039279D01*
X86511709Y-69939005D01*
X86572012Y-69848755D01*
X86648755Y-69772012D01*
X86739005Y-69711709D01*
X86839279Y-69670174D01*
X86945730Y-69649000D01*
X87054270Y-69649000D01*
X87160721Y-69670174D01*
X87160721Y-69670174D01*
G37*
G36*
X33354418Y-66369707D02*
X33392105Y-66381140D01*
X33426844Y-66399708D01*
X33457289Y-66424694D01*
X33482275Y-66455139D01*
X33500843Y-66489878D01*
X33512276Y-66527565D01*
X33516741Y-66572903D01*
X33516741Y-67659581D01*
X33512276Y-67704919D01*
X33500843Y-67742606D01*
X33482275Y-67777345D01*
X33457289Y-67807790D01*
X33426844Y-67832776D01*
X33392105Y-67851344D01*
X33354418Y-67862777D01*
X33309080Y-67867242D01*
X32472402Y-67867242D01*
X32427064Y-67862777D01*
X32389377Y-67851344D01*
X32354638Y-67832776D01*
X32324193Y-67807790D01*
X32299207Y-67777345D01*
X32280639Y-67742606D01*
X32269206Y-67704919D01*
X32264741Y-67659581D01*
X32264741Y-66572903D01*
X32269206Y-66527565D01*
X32280639Y-66489878D01*
X32299207Y-66455139D01*
X32324193Y-66424694D01*
X32354638Y-66399708D01*
X32389377Y-66381140D01*
X32427064Y-66369707D01*
X32472402Y-66365242D01*
X33309080Y-66365242D01*
X33354418Y-66369707D01*
X33354418Y-66369707D01*
G37*
G36*
X35404418Y-66369707D02*
X35442105Y-66381140D01*
X35476844Y-66399708D01*
X35507289Y-66424694D01*
X35532275Y-66455139D01*
X35550843Y-66489878D01*
X35562276Y-66527565D01*
X35566741Y-66572903D01*
X35566741Y-67659581D01*
X35562276Y-67704919D01*
X35550843Y-67742606D01*
X35532275Y-67777345D01*
X35507289Y-67807790D01*
X35476844Y-67832776D01*
X35442105Y-67851344D01*
X35404418Y-67862777D01*
X35359080Y-67867242D01*
X34522402Y-67867242D01*
X34477064Y-67862777D01*
X34439377Y-67851344D01*
X34404638Y-67832776D01*
X34374193Y-67807790D01*
X34349207Y-67777345D01*
X34330639Y-67742606D01*
X34319206Y-67704919D01*
X34314741Y-67659581D01*
X34314741Y-66572903D01*
X34319206Y-66527565D01*
X34330639Y-66489878D01*
X34349207Y-66455139D01*
X34374193Y-66424694D01*
X34404638Y-66399708D01*
X34439377Y-66381140D01*
X34477064Y-66369707D01*
X34522402Y-66365242D01*
X35359080Y-66365242D01*
X35404418Y-66369707D01*
X35404418Y-66369707D01*
G37*
G36*
X37371244Y-66400848D02*
X37371246Y-66400849D01*
X37371247Y-66400849D01*
X37421476Y-66421654D01*
X37456355Y-66444960D01*
X37466683Y-66451861D01*
X37505122Y-66490300D01*
X37505124Y-66490303D01*
X37535329Y-66535507D01*
X37555546Y-66584317D01*
X37556135Y-66585739D01*
X37566741Y-66639057D01*
X37566741Y-66693427D01*
X37555105Y-66751925D01*
X37552703Y-66776311D01*
X37555105Y-66800697D01*
X37562218Y-66824146D01*
X37573769Y-66845757D01*
X37589315Y-66864699D01*
X37608257Y-66880245D01*
X37629868Y-66891796D01*
X37653317Y-66898909D01*
X37677703Y-66901311D01*
X37702089Y-66898909D01*
X37725538Y-66891796D01*
X37747149Y-66880245D01*
X37760005Y-66871655D01*
X37760006Y-66871654D01*
X37810235Y-66850849D01*
X37810236Y-66850849D01*
X37810238Y-66850848D01*
X37863556Y-66840242D01*
X37917926Y-66840242D01*
X37971244Y-66850848D01*
X37971246Y-66850849D01*
X37971247Y-66850849D01*
X38021476Y-66871654D01*
X38021477Y-66871655D01*
X38034333Y-66880245D01*
X38055944Y-66891796D01*
X38079394Y-66898909D01*
X38103780Y-66901311D01*
X38128166Y-66898909D01*
X38151615Y-66891796D01*
X38173226Y-66880244D01*
X38192168Y-66864699D01*
X38207713Y-66845757D01*
X38219264Y-66824146D01*
X38226377Y-66800696D01*
X38228779Y-66776310D01*
X38226377Y-66751925D01*
X38214741Y-66693427D01*
X38214741Y-66639057D01*
X38225347Y-66585739D01*
X38225936Y-66584317D01*
X38246153Y-66535507D01*
X38276358Y-66490303D01*
X38276360Y-66490300D01*
X38314799Y-66451861D01*
X38325127Y-66444960D01*
X38360006Y-66421654D01*
X38410235Y-66400849D01*
X38410236Y-66400849D01*
X38410238Y-66400848D01*
X38463556Y-66390242D01*
X38517926Y-66390242D01*
X38571244Y-66400848D01*
X38571246Y-66400849D01*
X38571247Y-66400849D01*
X38621476Y-66421654D01*
X38656355Y-66444960D01*
X38666683Y-66451861D01*
X38705122Y-66490300D01*
X38705124Y-66490303D01*
X38735329Y-66535507D01*
X38756134Y-66585736D01*
X38766741Y-66639058D01*
X38766741Y-66693426D01*
X38756134Y-66746748D01*
X38735329Y-66796977D01*
X38735328Y-66796978D01*
X38705122Y-66842184D01*
X38666683Y-66880623D01*
X38666680Y-66880625D01*
X38621476Y-66910830D01*
X38571247Y-66931635D01*
X38571246Y-66931635D01*
X38571244Y-66931636D01*
X38517926Y-66942242D01*
X38463556Y-66942242D01*
X38410238Y-66931636D01*
X38410236Y-66931635D01*
X38410235Y-66931635D01*
X38360006Y-66910830D01*
X38347149Y-66902239D01*
X38325538Y-66890688D01*
X38302088Y-66883575D01*
X38277702Y-66881173D01*
X38253316Y-66883575D01*
X38229867Y-66890688D01*
X38208256Y-66902240D01*
X38189314Y-66917785D01*
X38173769Y-66936727D01*
X38162218Y-66958338D01*
X38155105Y-66981788D01*
X38152703Y-67006174D01*
X38155105Y-67030559D01*
X38166741Y-67089057D01*
X38166741Y-67143427D01*
X38155105Y-67201925D01*
X38152703Y-67226311D01*
X38155105Y-67250697D01*
X38162218Y-67274146D01*
X38173769Y-67295757D01*
X38189315Y-67314699D01*
X38208257Y-67330245D01*
X38229868Y-67341796D01*
X38253317Y-67348909D01*
X38277703Y-67351311D01*
X38302089Y-67348909D01*
X38325538Y-67341796D01*
X38347149Y-67330245D01*
X38360005Y-67321655D01*
X38360006Y-67321654D01*
X38410235Y-67300849D01*
X38410236Y-67300849D01*
X38410238Y-67300848D01*
X38463556Y-67290242D01*
X38517926Y-67290242D01*
X38571244Y-67300848D01*
X38571246Y-67300849D01*
X38571247Y-67300849D01*
X38621476Y-67321654D01*
X38649962Y-67340688D01*
X38666683Y-67351861D01*
X38705122Y-67390300D01*
X38705124Y-67390303D01*
X38735329Y-67435507D01*
X38756134Y-67485736D01*
X38766741Y-67539058D01*
X38766741Y-67593426D01*
X38756134Y-67646748D01*
X38735329Y-67696977D01*
X38735328Y-67696978D01*
X38705122Y-67742184D01*
X38666683Y-67780623D01*
X38666680Y-67780625D01*
X38621476Y-67810830D01*
X38571247Y-67831635D01*
X38571246Y-67831635D01*
X38571244Y-67831636D01*
X38517926Y-67842242D01*
X38463556Y-67842242D01*
X38410238Y-67831636D01*
X38410236Y-67831635D01*
X38410235Y-67831635D01*
X38360006Y-67810830D01*
X38314802Y-67780625D01*
X38314799Y-67780623D01*
X38276360Y-67742184D01*
X38246154Y-67696978D01*
X38246153Y-67696977D01*
X38225348Y-67646748D01*
X38214741Y-67593426D01*
X38214741Y-67539058D01*
X38225347Y-67485739D01*
X38226377Y-67480559D01*
X38228779Y-67456173D01*
X38226377Y-67431787D01*
X38219264Y-67408338D01*
X38207713Y-67386727D01*
X38192167Y-67367785D01*
X38173225Y-67352239D01*
X38151614Y-67340688D01*
X38128165Y-67333575D01*
X38103779Y-67331173D01*
X38079393Y-67333575D01*
X38055944Y-67340688D01*
X38034333Y-67352239D01*
X38021476Y-67360830D01*
X37971247Y-67381635D01*
X37971246Y-67381635D01*
X37971244Y-67381636D01*
X37917926Y-67392242D01*
X37863556Y-67392242D01*
X37810238Y-67381636D01*
X37810236Y-67381635D01*
X37810235Y-67381635D01*
X37760006Y-67360830D01*
X37747149Y-67352239D01*
X37725538Y-67340688D01*
X37702088Y-67333575D01*
X37677702Y-67331173D01*
X37653316Y-67333575D01*
X37629867Y-67340688D01*
X37608256Y-67352240D01*
X37589314Y-67367785D01*
X37573769Y-67386727D01*
X37562218Y-67408338D01*
X37555105Y-67431788D01*
X37552703Y-67456174D01*
X37555105Y-67480559D01*
X37556135Y-67485739D01*
X37566741Y-67539058D01*
X37566741Y-67593426D01*
X37556134Y-67646748D01*
X37535329Y-67696977D01*
X37535328Y-67696978D01*
X37505122Y-67742184D01*
X37466683Y-67780623D01*
X37466680Y-67780625D01*
X37421476Y-67810830D01*
X37371247Y-67831635D01*
X37371246Y-67831635D01*
X37371244Y-67831636D01*
X37317926Y-67842242D01*
X37263556Y-67842242D01*
X37210238Y-67831636D01*
X37210236Y-67831635D01*
X37210235Y-67831635D01*
X37160006Y-67810830D01*
X37114802Y-67780625D01*
X37114799Y-67780623D01*
X37076360Y-67742184D01*
X37046154Y-67696978D01*
X37046153Y-67696977D01*
X37025348Y-67646748D01*
X37014741Y-67593426D01*
X37014741Y-67539058D01*
X37025348Y-67485736D01*
X37046153Y-67435507D01*
X37076358Y-67390303D01*
X37076360Y-67390300D01*
X37114799Y-67351861D01*
X37131520Y-67340688D01*
X37160006Y-67321654D01*
X37210235Y-67300849D01*
X37210236Y-67300849D01*
X37210238Y-67300848D01*
X37263556Y-67290242D01*
X37317926Y-67290242D01*
X37371244Y-67300848D01*
X37371246Y-67300849D01*
X37371247Y-67300849D01*
X37421476Y-67321654D01*
X37421477Y-67321655D01*
X37434333Y-67330245D01*
X37455944Y-67341796D01*
X37479394Y-67348909D01*
X37503780Y-67351311D01*
X37528166Y-67348909D01*
X37551615Y-67341796D01*
X37573226Y-67330244D01*
X37592168Y-67314699D01*
X37607713Y-67295757D01*
X37619264Y-67274146D01*
X37626377Y-67250696D01*
X37628779Y-67226310D01*
X37626377Y-67201925D01*
X37614741Y-67143427D01*
X37614741Y-67089057D01*
X37626377Y-67030559D01*
X37628779Y-67006173D01*
X37626377Y-66981787D01*
X37619264Y-66958338D01*
X37607713Y-66936727D01*
X37592167Y-66917785D01*
X37573225Y-66902239D01*
X37551614Y-66890688D01*
X37528165Y-66883575D01*
X37503779Y-66881173D01*
X37479393Y-66883575D01*
X37455944Y-66890688D01*
X37434333Y-66902239D01*
X37421476Y-66910830D01*
X37371247Y-66931635D01*
X37371246Y-66931635D01*
X37371244Y-66931636D01*
X37317926Y-66942242D01*
X37263556Y-66942242D01*
X37210238Y-66931636D01*
X37210236Y-66931635D01*
X37210235Y-66931635D01*
X37160006Y-66910830D01*
X37114802Y-66880625D01*
X37114799Y-66880623D01*
X37076360Y-66842184D01*
X37046154Y-66796978D01*
X37046153Y-66796977D01*
X37025348Y-66746748D01*
X37014741Y-66693426D01*
X37014741Y-66639058D01*
X37025348Y-66585736D01*
X37046153Y-66535507D01*
X37076358Y-66490303D01*
X37076360Y-66490300D01*
X37114799Y-66451861D01*
X37125127Y-66444960D01*
X37160006Y-66421654D01*
X37210235Y-66400849D01*
X37210236Y-66400849D01*
X37210238Y-66400848D01*
X37263556Y-66390242D01*
X37317926Y-66390242D01*
X37371244Y-66400848D01*
X37371244Y-66400848D01*
G37*
G36*
X87160721Y-65270174D02*
X87260995Y-65311709D01*
X87351245Y-65372012D01*
X87427988Y-65448755D01*
X87488291Y-65539005D01*
X87529826Y-65639279D01*
X87551000Y-65745730D01*
X87551000Y-65854270D01*
X87529826Y-65960721D01*
X87488291Y-66060995D01*
X87427988Y-66151245D01*
X87351245Y-66227988D01*
X87260995Y-66288291D01*
X87160721Y-66329826D01*
X87054270Y-66351000D01*
X86945730Y-66351000D01*
X86839279Y-66329826D01*
X86739005Y-66288291D01*
X86648755Y-66227988D01*
X86572012Y-66151245D01*
X86511709Y-66060995D01*
X86470174Y-65960721D01*
X86449000Y-65854270D01*
X86449000Y-65745730D01*
X86470174Y-65639279D01*
X86511709Y-65539005D01*
X86572012Y-65448755D01*
X86648755Y-65372012D01*
X86739005Y-65311709D01*
X86839279Y-65270174D01*
X86945730Y-65249000D01*
X87054270Y-65249000D01*
X87160721Y-65270174D01*
X87160721Y-65270174D01*
G37*
G36*
X87110443Y-58805519D02*
X87176627Y-58812037D01*
X87289853Y-58846384D01*
X87346467Y-58863557D01*
X87485087Y-58937652D01*
X87502991Y-58947222D01*
X87538729Y-58976552D01*
X87640186Y-59059814D01*
X87723448Y-59161271D01*
X87752778Y-59197009D01*
X87752779Y-59197011D01*
X87836443Y-59353533D01*
X87836443Y-59353534D01*
X87887963Y-59523373D01*
X87905359Y-59700000D01*
X87887963Y-59876627D01*
X87853616Y-59989853D01*
X87836443Y-60046467D01*
X87762348Y-60185087D01*
X87752778Y-60202991D01*
X87723448Y-60238729D01*
X87640186Y-60340186D01*
X87538729Y-60423448D01*
X87502991Y-60452778D01*
X87502989Y-60452779D01*
X87346467Y-60536443D01*
X87289853Y-60553616D01*
X87176627Y-60587963D01*
X87110442Y-60594482D01*
X87044260Y-60601000D01*
X86955740Y-60601000D01*
X86889558Y-60594482D01*
X86823373Y-60587963D01*
X86710147Y-60553616D01*
X86653533Y-60536443D01*
X86497011Y-60452779D01*
X86497009Y-60452778D01*
X86461271Y-60423448D01*
X86359814Y-60340186D01*
X86276552Y-60238729D01*
X86247222Y-60202991D01*
X86237652Y-60185087D01*
X86163557Y-60046467D01*
X86146384Y-59989853D01*
X86112037Y-59876627D01*
X86094641Y-59700000D01*
X86112037Y-59523373D01*
X86163557Y-59353534D01*
X86163557Y-59353533D01*
X86247221Y-59197011D01*
X86247222Y-59197009D01*
X86276552Y-59161271D01*
X86359814Y-59059814D01*
X86461271Y-58976552D01*
X86497009Y-58947222D01*
X86514913Y-58937652D01*
X86653533Y-58863557D01*
X86710147Y-58846384D01*
X86823373Y-58812037D01*
X86889557Y-58805519D01*
X86955740Y-58799000D01*
X87044260Y-58799000D01*
X87110443Y-58805519D01*
X87110443Y-58805519D01*
G37*
G36*
X87110442Y-56265518D02*
X87176627Y-56272037D01*
X87289853Y-56306384D01*
X87346467Y-56323557D01*
X87485087Y-56397652D01*
X87502991Y-56407222D01*
X87538729Y-56436552D01*
X87640186Y-56519814D01*
X87723448Y-56621271D01*
X87752778Y-56657009D01*
X87752779Y-56657011D01*
X87836443Y-56813533D01*
X87836443Y-56813534D01*
X87887963Y-56983373D01*
X87905359Y-57160000D01*
X87887963Y-57336627D01*
X87853616Y-57449853D01*
X87836443Y-57506467D01*
X87762348Y-57645087D01*
X87752778Y-57662991D01*
X87723448Y-57698729D01*
X87640186Y-57800186D01*
X87538729Y-57883448D01*
X87502991Y-57912778D01*
X87502989Y-57912779D01*
X87346467Y-57996443D01*
X87289853Y-58013616D01*
X87176627Y-58047963D01*
X87110443Y-58054481D01*
X87044260Y-58061000D01*
X86955740Y-58061000D01*
X86889557Y-58054481D01*
X86823373Y-58047963D01*
X86710147Y-58013616D01*
X86653533Y-57996443D01*
X86497011Y-57912779D01*
X86497009Y-57912778D01*
X86461271Y-57883448D01*
X86359814Y-57800186D01*
X86276552Y-57698729D01*
X86247222Y-57662991D01*
X86237652Y-57645087D01*
X86163557Y-57506467D01*
X86146384Y-57449853D01*
X86112037Y-57336627D01*
X86094641Y-57160000D01*
X86112037Y-56983373D01*
X86163557Y-56813534D01*
X86163557Y-56813533D01*
X86247221Y-56657011D01*
X86247222Y-56657009D01*
X86276552Y-56621271D01*
X86359814Y-56519814D01*
X86461271Y-56436552D01*
X86497009Y-56407222D01*
X86514913Y-56397652D01*
X86653533Y-56323557D01*
X86710147Y-56306384D01*
X86823373Y-56272037D01*
X86889558Y-56265518D01*
X86955740Y-56259000D01*
X87044260Y-56259000D01*
X87110442Y-56265518D01*
X87110442Y-56265518D01*
G37*
G36*
X87110443Y-53725519D02*
X87176627Y-53732037D01*
X87289853Y-53766384D01*
X87346467Y-53783557D01*
X87485087Y-53857652D01*
X87502991Y-53867222D01*
X87538729Y-53896552D01*
X87640186Y-53979814D01*
X87723448Y-54081271D01*
X87752778Y-54117009D01*
X87752779Y-54117011D01*
X87836443Y-54273533D01*
X87836443Y-54273534D01*
X87887963Y-54443373D01*
X87905359Y-54620000D01*
X87887963Y-54796627D01*
X87853616Y-54909853D01*
X87836443Y-54966467D01*
X87762348Y-55105087D01*
X87752778Y-55122991D01*
X87723448Y-55158729D01*
X87640186Y-55260186D01*
X87538729Y-55343448D01*
X87502991Y-55372778D01*
X87502989Y-55372779D01*
X87346467Y-55456443D01*
X87289853Y-55473616D01*
X87176627Y-55507963D01*
X87110443Y-55514481D01*
X87044260Y-55521000D01*
X86955740Y-55521000D01*
X86889557Y-55514481D01*
X86823373Y-55507963D01*
X86710147Y-55473616D01*
X86653533Y-55456443D01*
X86497011Y-55372779D01*
X86497009Y-55372778D01*
X86461271Y-55343448D01*
X86359814Y-55260186D01*
X86276552Y-55158729D01*
X86247222Y-55122991D01*
X86237652Y-55105087D01*
X86163557Y-54966467D01*
X86146384Y-54909853D01*
X86112037Y-54796627D01*
X86094641Y-54620000D01*
X86112037Y-54443373D01*
X86163557Y-54273534D01*
X86163557Y-54273533D01*
X86247221Y-54117011D01*
X86247222Y-54117009D01*
X86276552Y-54081271D01*
X86359814Y-53979814D01*
X86461271Y-53896552D01*
X86497009Y-53867222D01*
X86514913Y-53857652D01*
X86653533Y-53783557D01*
X86710147Y-53766384D01*
X86823373Y-53732037D01*
X86889557Y-53725519D01*
X86955740Y-53719000D01*
X87044260Y-53719000D01*
X87110443Y-53725519D01*
X87110443Y-53725519D01*
G37*
G36*
X87110442Y-51185518D02*
X87176627Y-51192037D01*
X87289853Y-51226384D01*
X87346467Y-51243557D01*
X87467875Y-51308452D01*
X87502991Y-51327222D01*
X87538729Y-51356552D01*
X87640186Y-51439814D01*
X87723448Y-51541271D01*
X87752778Y-51577009D01*
X87752779Y-51577011D01*
X87836443Y-51733533D01*
X87836443Y-51733534D01*
X87887963Y-51903373D01*
X87905359Y-52080000D01*
X87887963Y-52256627D01*
X87853616Y-52369853D01*
X87836443Y-52426467D01*
X87780074Y-52531925D01*
X87752778Y-52582991D01*
X87723448Y-52618729D01*
X87640186Y-52720186D01*
X87538729Y-52803448D01*
X87502991Y-52832778D01*
X87502989Y-52832779D01*
X87346467Y-52916443D01*
X87289853Y-52933616D01*
X87176627Y-52967963D01*
X87110442Y-52974482D01*
X87044260Y-52981000D01*
X86955740Y-52981000D01*
X86889558Y-52974482D01*
X86823373Y-52967963D01*
X86710147Y-52933616D01*
X86653533Y-52916443D01*
X86497011Y-52832779D01*
X86497009Y-52832778D01*
X86461271Y-52803448D01*
X86359814Y-52720186D01*
X86276552Y-52618729D01*
X86247222Y-52582991D01*
X86219926Y-52531925D01*
X86163557Y-52426467D01*
X86146384Y-52369853D01*
X86112037Y-52256627D01*
X86094641Y-52080000D01*
X86112037Y-51903373D01*
X86163557Y-51733534D01*
X86163557Y-51733533D01*
X86247221Y-51577011D01*
X86247222Y-51577009D01*
X86276552Y-51541271D01*
X86359814Y-51439814D01*
X86461271Y-51356552D01*
X86497009Y-51327222D01*
X86532125Y-51308452D01*
X86653533Y-51243557D01*
X86710147Y-51226384D01*
X86823373Y-51192037D01*
X86889558Y-51185518D01*
X86955740Y-51179000D01*
X87044260Y-51179000D01*
X87110442Y-51185518D01*
X87110442Y-51185518D01*
G37*
G36*
X75488677Y-51253465D02*
X75526364Y-51264898D01*
X75561103Y-51283466D01*
X75591548Y-51308452D01*
X75616534Y-51338897D01*
X75635102Y-51373636D01*
X75646535Y-51411323D01*
X75651000Y-51456661D01*
X75651000Y-52543339D01*
X75646535Y-52588677D01*
X75635102Y-52626364D01*
X75616534Y-52661103D01*
X75591548Y-52691548D01*
X75561103Y-52716534D01*
X75526364Y-52735102D01*
X75488677Y-52746535D01*
X75443339Y-52751000D01*
X74606661Y-52751000D01*
X74561323Y-52746535D01*
X74523636Y-52735102D01*
X74488897Y-52716534D01*
X74458452Y-52691548D01*
X74433466Y-52661103D01*
X74414898Y-52626364D01*
X74403465Y-52588677D01*
X74399000Y-52543339D01*
X74399000Y-51456661D01*
X74403465Y-51411323D01*
X74414898Y-51373636D01*
X74433466Y-51338897D01*
X74458452Y-51308452D01*
X74488897Y-51283466D01*
X74523636Y-51264898D01*
X74561323Y-51253465D01*
X74606661Y-51249000D01*
X75443339Y-51249000D01*
X75488677Y-51253465D01*
X75488677Y-51253465D01*
G37*
G36*
X73438677Y-51253465D02*
X73476364Y-51264898D01*
X73511103Y-51283466D01*
X73541548Y-51308452D01*
X73566534Y-51338897D01*
X73585102Y-51373636D01*
X73596535Y-51411323D01*
X73601000Y-51456661D01*
X73601000Y-52543339D01*
X73596535Y-52588677D01*
X73585102Y-52626364D01*
X73566534Y-52661103D01*
X73541548Y-52691548D01*
X73511103Y-52716534D01*
X73476364Y-52735102D01*
X73438677Y-52746535D01*
X73393339Y-52751000D01*
X72556661Y-52751000D01*
X72511323Y-52746535D01*
X72473636Y-52735102D01*
X72438897Y-52716534D01*
X72408452Y-52691548D01*
X72383466Y-52661103D01*
X72364898Y-52626364D01*
X72353465Y-52588677D01*
X72349000Y-52543339D01*
X72349000Y-51456661D01*
X72353465Y-51411323D01*
X72364898Y-51373636D01*
X72383466Y-51338897D01*
X72408452Y-51308452D01*
X72438897Y-51283466D01*
X72473636Y-51264898D01*
X72511323Y-51253465D01*
X72556661Y-51249000D01*
X73393339Y-51249000D01*
X73438677Y-51253465D01*
X73438677Y-51253465D01*
G37*
G36*
X77463677Y-51253465D02*
X77501364Y-51264898D01*
X77536103Y-51283466D01*
X77566548Y-51308452D01*
X77591534Y-51338897D01*
X77610102Y-51373636D01*
X77621535Y-51411323D01*
X77626000Y-51456661D01*
X77626000Y-52543339D01*
X77621535Y-52588677D01*
X77610102Y-52626364D01*
X77591534Y-52661103D01*
X77566548Y-52691548D01*
X77536103Y-52716534D01*
X77501364Y-52735102D01*
X77463677Y-52746535D01*
X77418339Y-52751000D01*
X76581661Y-52751000D01*
X76536323Y-52746535D01*
X76498636Y-52735102D01*
X76463897Y-52716534D01*
X76433452Y-52691548D01*
X76408466Y-52661103D01*
X76389898Y-52626364D01*
X76378465Y-52588677D01*
X76374000Y-52543339D01*
X76374000Y-51456661D01*
X76378465Y-51411323D01*
X76389898Y-51373636D01*
X76408466Y-51338897D01*
X76433452Y-51308452D01*
X76463897Y-51283466D01*
X76498636Y-51264898D01*
X76536323Y-51253465D01*
X76581661Y-51249000D01*
X77418339Y-51249000D01*
X77463677Y-51253465D01*
X77463677Y-51253465D01*
G37*
G36*
X79513677Y-51253465D02*
X79551364Y-51264898D01*
X79586103Y-51283466D01*
X79616548Y-51308452D01*
X79641534Y-51338897D01*
X79660102Y-51373636D01*
X79671535Y-51411323D01*
X79676000Y-51456661D01*
X79676000Y-52543339D01*
X79671535Y-52588677D01*
X79660102Y-52626364D01*
X79641534Y-52661103D01*
X79616548Y-52691548D01*
X79586103Y-52716534D01*
X79551364Y-52735102D01*
X79513677Y-52746535D01*
X79468339Y-52751000D01*
X78631661Y-52751000D01*
X78586323Y-52746535D01*
X78548636Y-52735102D01*
X78513897Y-52716534D01*
X78483452Y-52691548D01*
X78458466Y-52661103D01*
X78439898Y-52626364D01*
X78428465Y-52588677D01*
X78424000Y-52543339D01*
X78424000Y-51456661D01*
X78428465Y-51411323D01*
X78439898Y-51373636D01*
X78458466Y-51338897D01*
X78483452Y-51308452D01*
X78513897Y-51283466D01*
X78548636Y-51264898D01*
X78586323Y-51253465D01*
X78631661Y-51249000D01*
X79468339Y-51249000D01*
X79513677Y-51253465D01*
X79513677Y-51253465D01*
G37*
G36*
X73588677Y-49403465D02*
X73626364Y-49414898D01*
X73661103Y-49433466D01*
X73691548Y-49458452D01*
X73716534Y-49488897D01*
X73735102Y-49523636D01*
X73746535Y-49561323D01*
X73751000Y-49606661D01*
X73751000Y-50443339D01*
X73746535Y-50488677D01*
X73735102Y-50526364D01*
X73716534Y-50561103D01*
X73691548Y-50591548D01*
X73661103Y-50616534D01*
X73626364Y-50635102D01*
X73588677Y-50646535D01*
X73543339Y-50651000D01*
X72456661Y-50651000D01*
X72411323Y-50646535D01*
X72373636Y-50635102D01*
X72338897Y-50616534D01*
X72308452Y-50591548D01*
X72283466Y-50561103D01*
X72264898Y-50526364D01*
X72253465Y-50488677D01*
X72249000Y-50443339D01*
X72249000Y-49606661D01*
X72253465Y-49561323D01*
X72264898Y-49523636D01*
X72283466Y-49488897D01*
X72308452Y-49458452D01*
X72338897Y-49433466D01*
X72373636Y-49414898D01*
X72411323Y-49403465D01*
X72456661Y-49399000D01*
X73543339Y-49399000D01*
X73588677Y-49403465D01*
X73588677Y-49403465D01*
G37*
G36*
X87110443Y-48645519D02*
X87176627Y-48652037D01*
X87289853Y-48686384D01*
X87346467Y-48703557D01*
X87485087Y-48777652D01*
X87502991Y-48787222D01*
X87538729Y-48816552D01*
X87640186Y-48899814D01*
X87723448Y-49001271D01*
X87752778Y-49037009D01*
X87752779Y-49037011D01*
X87836443Y-49193533D01*
X87836443Y-49193534D01*
X87887963Y-49363373D01*
X87905359Y-49540000D01*
X87887963Y-49716627D01*
X87853616Y-49829853D01*
X87836443Y-49886467D01*
X87762348Y-50025087D01*
X87752778Y-50042991D01*
X87723448Y-50078729D01*
X87640186Y-50180186D01*
X87538729Y-50263448D01*
X87502991Y-50292778D01*
X87502989Y-50292779D01*
X87346467Y-50376443D01*
X87289853Y-50393616D01*
X87176627Y-50427963D01*
X87136399Y-50431925D01*
X87044260Y-50441000D01*
X86955740Y-50441000D01*
X86863601Y-50431925D01*
X86823373Y-50427963D01*
X86710147Y-50393616D01*
X86653533Y-50376443D01*
X86497011Y-50292779D01*
X86497009Y-50292778D01*
X86461271Y-50263448D01*
X86359814Y-50180186D01*
X86276552Y-50078729D01*
X86247222Y-50042991D01*
X86237652Y-50025087D01*
X86163557Y-49886467D01*
X86146384Y-49829853D01*
X86112037Y-49716627D01*
X86094641Y-49540000D01*
X86112037Y-49363373D01*
X86163557Y-49193534D01*
X86163557Y-49193533D01*
X86247221Y-49037011D01*
X86247222Y-49037009D01*
X86276552Y-49001271D01*
X86359814Y-48899814D01*
X86461271Y-48816552D01*
X86497009Y-48787222D01*
X86514913Y-48777652D01*
X86653533Y-48703557D01*
X86710147Y-48686384D01*
X86823373Y-48652037D01*
X86889557Y-48645519D01*
X86955740Y-48639000D01*
X87044260Y-48639000D01*
X87110443Y-48645519D01*
X87110443Y-48645519D01*
G37*
G36*
X73588677Y-47353465D02*
X73626364Y-47364898D01*
X73661103Y-47383466D01*
X73691548Y-47408452D01*
X73716534Y-47438897D01*
X73735102Y-47473636D01*
X73746535Y-47511323D01*
X73751000Y-47556661D01*
X73751000Y-48393339D01*
X73746535Y-48438677D01*
X73735102Y-48476364D01*
X73716534Y-48511103D01*
X73691548Y-48541548D01*
X73661103Y-48566534D01*
X73626364Y-48585102D01*
X73588677Y-48596535D01*
X73543339Y-48601000D01*
X72456661Y-48601000D01*
X72411323Y-48596535D01*
X72373636Y-48585102D01*
X72338897Y-48566534D01*
X72308452Y-48541548D01*
X72283466Y-48511103D01*
X72264898Y-48476364D01*
X72253465Y-48438677D01*
X72249000Y-48393339D01*
X72249000Y-47556661D01*
X72253465Y-47511323D01*
X72264898Y-47473636D01*
X72283466Y-47438897D01*
X72308452Y-47408452D01*
X72338897Y-47383466D01*
X72373636Y-47364898D01*
X72411323Y-47353465D01*
X72456661Y-47349000D01*
X73543339Y-47349000D01*
X73588677Y-47353465D01*
X73588677Y-47353465D01*
G37*
G36*
X40401000Y-47941000D02*
X38599000Y-47941000D01*
X38599000Y-46139000D01*
X40401000Y-46139000D01*
X40401000Y-47941000D01*
X40401000Y-47941000D01*
G37*
G36*
X87901000Y-47901000D02*
X86099000Y-47901000D01*
X86099000Y-46099000D01*
X87901000Y-46099000D01*
X87901000Y-47901000D01*
X87901000Y-47901000D01*
G37*
G36*
X83588677Y-45403465D02*
X83626364Y-45414898D01*
X83661103Y-45433466D01*
X83691548Y-45458452D01*
X83716534Y-45488897D01*
X83735102Y-45523636D01*
X83746535Y-45561323D01*
X83751000Y-45606661D01*
X83751000Y-46443339D01*
X83746535Y-46488677D01*
X83735102Y-46526364D01*
X83716534Y-46561103D01*
X83691548Y-46591548D01*
X83661103Y-46616534D01*
X83626364Y-46635102D01*
X83588677Y-46646535D01*
X83543339Y-46651000D01*
X82456661Y-46651000D01*
X82411323Y-46646535D01*
X82373636Y-46635102D01*
X82338897Y-46616534D01*
X82308452Y-46591548D01*
X82283466Y-46561103D01*
X82264898Y-46526364D01*
X82253465Y-46488677D01*
X82249000Y-46443339D01*
X82249000Y-45606661D01*
X82253465Y-45561323D01*
X82264898Y-45523636D01*
X82283466Y-45488897D01*
X82308452Y-45458452D01*
X82338897Y-45433466D01*
X82373636Y-45414898D01*
X82411323Y-45403465D01*
X82456661Y-45399000D01*
X83543339Y-45399000D01*
X83588677Y-45403465D01*
X83588677Y-45403465D01*
G37*
G36*
X39610442Y-43605518D02*
X39676627Y-43612037D01*
X39789853Y-43646384D01*
X39846467Y-43663557D01*
X39970363Y-43729782D01*
X40002991Y-43747222D01*
X40038729Y-43776552D01*
X40140186Y-43859814D01*
X40223448Y-43961271D01*
X40252778Y-43997009D01*
X40252779Y-43997011D01*
X40336443Y-44153533D01*
X40336443Y-44153534D01*
X40387963Y-44323373D01*
X40405359Y-44500000D01*
X40387963Y-44676627D01*
X40370667Y-44733643D01*
X40336443Y-44846467D01*
X40318831Y-44879416D01*
X40252778Y-45002991D01*
X40246524Y-45010611D01*
X40140186Y-45140186D01*
X40038729Y-45223448D01*
X40002991Y-45252778D01*
X40002989Y-45252779D01*
X39846467Y-45336443D01*
X39789853Y-45353616D01*
X39676627Y-45387963D01*
X39610442Y-45394482D01*
X39544260Y-45401000D01*
X39455740Y-45401000D01*
X39389558Y-45394482D01*
X39323373Y-45387963D01*
X39210147Y-45353616D01*
X39153533Y-45336443D01*
X38997011Y-45252779D01*
X38997009Y-45252778D01*
X38961271Y-45223448D01*
X38859814Y-45140186D01*
X38753476Y-45010611D01*
X38747222Y-45002991D01*
X38681169Y-44879416D01*
X38663557Y-44846467D01*
X38629333Y-44733643D01*
X38612037Y-44676627D01*
X38594641Y-44500000D01*
X38612037Y-44323373D01*
X38663557Y-44153534D01*
X38663557Y-44153533D01*
X38747221Y-43997011D01*
X38747222Y-43997009D01*
X38776552Y-43961271D01*
X38859814Y-43859814D01*
X38961271Y-43776552D01*
X38997009Y-43747222D01*
X39029637Y-43729782D01*
X39153533Y-43663557D01*
X39210147Y-43646384D01*
X39323373Y-43612037D01*
X39389558Y-43605518D01*
X39455740Y-43599000D01*
X39544260Y-43599000D01*
X39610442Y-43605518D01*
X39610442Y-43605518D01*
G37*
G36*
X66733643Y-43729781D02*
X66879415Y-43790162D01*
X67010611Y-43877824D01*
X67122176Y-43989389D01*
X67209838Y-44120585D01*
X67270219Y-44266357D01*
X67301000Y-44421107D01*
X67301000Y-44578893D01*
X67270219Y-44733643D01*
X67209838Y-44879415D01*
X67122176Y-45010611D01*
X67010611Y-45122176D01*
X66879415Y-45209838D01*
X66733643Y-45270219D01*
X66578893Y-45301000D01*
X66421107Y-45301000D01*
X66266357Y-45270219D01*
X66120585Y-45209838D01*
X65989389Y-45122176D01*
X65877824Y-45010611D01*
X65790162Y-44879415D01*
X65729781Y-44733643D01*
X65699000Y-44578893D01*
X65699000Y-44421107D01*
X65729781Y-44266357D01*
X65790162Y-44120585D01*
X65877824Y-43989389D01*
X65989389Y-43877824D01*
X66120585Y-43790162D01*
X66266357Y-43729781D01*
X66421107Y-43699000D01*
X66578893Y-43699000D01*
X66733643Y-43729781D01*
X66733643Y-43729781D01*
G37*
G36*
X69273643Y-43729781D02*
X69419415Y-43790162D01*
X69550611Y-43877824D01*
X69662176Y-43989389D01*
X69749838Y-44120585D01*
X69810219Y-44266357D01*
X69841000Y-44421107D01*
X69841000Y-44578893D01*
X69810219Y-44733643D01*
X69749838Y-44879415D01*
X69662176Y-45010611D01*
X69550611Y-45122176D01*
X69419415Y-45209838D01*
X69273643Y-45270219D01*
X69118893Y-45301000D01*
X68961107Y-45301000D01*
X68806357Y-45270219D01*
X68660585Y-45209838D01*
X68529389Y-45122176D01*
X68417824Y-45010611D01*
X68330162Y-44879415D01*
X68269781Y-44733643D01*
X68239000Y-44578893D01*
X68239000Y-44421107D01*
X68269781Y-44266357D01*
X68330162Y-44120585D01*
X68417824Y-43989389D01*
X68529389Y-43877824D01*
X68660585Y-43790162D01*
X68806357Y-43729781D01*
X68961107Y-43699000D01*
X69118893Y-43699000D01*
X69273643Y-43729781D01*
X69273643Y-43729781D01*
G37*
G36*
X64193643Y-43729781D02*
X64339415Y-43790162D01*
X64470611Y-43877824D01*
X64582176Y-43989389D01*
X64669838Y-44120585D01*
X64730219Y-44266357D01*
X64761000Y-44421107D01*
X64761000Y-44578893D01*
X64730219Y-44733643D01*
X64669838Y-44879415D01*
X64582176Y-45010611D01*
X64470611Y-45122176D01*
X64339415Y-45209838D01*
X64193643Y-45270219D01*
X64038893Y-45301000D01*
X63881107Y-45301000D01*
X63726357Y-45270219D01*
X63580585Y-45209838D01*
X63449389Y-45122176D01*
X63337824Y-45010611D01*
X63250162Y-44879415D01*
X63189781Y-44733643D01*
X63159000Y-44578893D01*
X63159000Y-44421107D01*
X63189781Y-44266357D01*
X63250162Y-44120585D01*
X63337824Y-43989389D01*
X63449389Y-43877824D01*
X63580585Y-43790162D01*
X63726357Y-43729781D01*
X63881107Y-43699000D01*
X64038893Y-43699000D01*
X64193643Y-43729781D01*
X64193643Y-43729781D01*
G37*
G36*
X83588677Y-43353465D02*
X83626364Y-43364898D01*
X83661103Y-43383466D01*
X83691548Y-43408452D01*
X83716534Y-43438897D01*
X83735102Y-43473636D01*
X83746535Y-43511323D01*
X83751000Y-43556661D01*
X83751000Y-44393339D01*
X83746535Y-44438677D01*
X83735102Y-44476364D01*
X83716534Y-44511103D01*
X83691548Y-44541548D01*
X83661103Y-44566534D01*
X83626364Y-44585102D01*
X83588677Y-44596535D01*
X83543339Y-44601000D01*
X82456661Y-44601000D01*
X82411323Y-44596535D01*
X82373636Y-44585102D01*
X82338897Y-44566534D01*
X82308452Y-44541548D01*
X82283466Y-44511103D01*
X82264898Y-44476364D01*
X82253465Y-44438677D01*
X82249000Y-44393339D01*
X82249000Y-43556661D01*
X82253465Y-43511323D01*
X82264898Y-43473636D01*
X82283466Y-43438897D01*
X82308452Y-43408452D01*
X82338897Y-43383466D01*
X82373636Y-43364898D01*
X82411323Y-43353465D01*
X82456661Y-43349000D01*
X83543339Y-43349000D01*
X83588677Y-43353465D01*
X83588677Y-43353465D01*
G37*
G36*
X39610443Y-41065519D02*
X39676627Y-41072037D01*
X39789853Y-41106384D01*
X39846467Y-41123557D01*
X39985087Y-41197652D01*
X40002991Y-41207222D01*
X40017736Y-41219323D01*
X40140186Y-41319814D01*
X40223448Y-41421271D01*
X40252778Y-41457009D01*
X40252779Y-41457011D01*
X40336443Y-41613533D01*
X40336443Y-41613534D01*
X40387963Y-41783373D01*
X40405359Y-41960000D01*
X40387963Y-42136627D01*
X40353616Y-42249853D01*
X40336443Y-42306467D01*
X40288224Y-42396677D01*
X40252778Y-42462991D01*
X40239408Y-42479282D01*
X40140186Y-42600186D01*
X40038729Y-42683448D01*
X40002991Y-42712778D01*
X40002989Y-42712779D01*
X39846467Y-42796443D01*
X39789853Y-42813616D01*
X39676627Y-42847963D01*
X39610443Y-42854481D01*
X39544260Y-42861000D01*
X39455740Y-42861000D01*
X39389557Y-42854481D01*
X39323373Y-42847963D01*
X39210147Y-42813616D01*
X39153533Y-42796443D01*
X38997011Y-42712779D01*
X38997009Y-42712778D01*
X38961271Y-42683448D01*
X38859814Y-42600186D01*
X38760592Y-42479282D01*
X38747222Y-42462991D01*
X38711776Y-42396677D01*
X38663557Y-42306467D01*
X38646384Y-42249853D01*
X38612037Y-42136627D01*
X38594641Y-41960000D01*
X38612037Y-41783373D01*
X38663557Y-41613534D01*
X38663557Y-41613533D01*
X38747221Y-41457011D01*
X38747222Y-41457009D01*
X38776552Y-41421271D01*
X38859814Y-41319814D01*
X38982264Y-41219323D01*
X38997009Y-41207222D01*
X39014913Y-41197652D01*
X39153533Y-41123557D01*
X39210147Y-41106384D01*
X39323373Y-41072037D01*
X39389557Y-41065519D01*
X39455740Y-41059000D01*
X39544260Y-41059000D01*
X39610443Y-41065519D01*
X39610443Y-41065519D01*
G37*
G36*
X89513677Y-41061465D02*
X89551364Y-41072898D01*
X89586103Y-41091466D01*
X89616548Y-41116452D01*
X89641534Y-41146897D01*
X89660102Y-41181636D01*
X89671535Y-41219323D01*
X89676000Y-41264661D01*
X89676000Y-42351339D01*
X89671535Y-42396677D01*
X89660102Y-42434364D01*
X89641534Y-42469103D01*
X89616548Y-42499548D01*
X89586103Y-42524534D01*
X89551364Y-42543102D01*
X89513677Y-42554535D01*
X89468339Y-42559000D01*
X88631661Y-42559000D01*
X88586323Y-42554535D01*
X88548636Y-42543102D01*
X88513897Y-42524534D01*
X88483452Y-42499548D01*
X88458466Y-42469103D01*
X88439898Y-42434364D01*
X88428465Y-42396677D01*
X88424000Y-42351339D01*
X88424000Y-41264661D01*
X88428465Y-41219323D01*
X88439898Y-41181636D01*
X88458466Y-41146897D01*
X88483452Y-41116452D01*
X88513897Y-41091466D01*
X88548636Y-41072898D01*
X88586323Y-41061465D01*
X88631661Y-41057000D01*
X89468339Y-41057000D01*
X89513677Y-41061465D01*
X89513677Y-41061465D01*
G37*
G36*
X87463677Y-41061465D02*
X87501364Y-41072898D01*
X87536103Y-41091466D01*
X87566548Y-41116452D01*
X87591534Y-41146897D01*
X87610102Y-41181636D01*
X87621535Y-41219323D01*
X87626000Y-41264661D01*
X87626000Y-42351339D01*
X87621535Y-42396677D01*
X87610102Y-42434364D01*
X87591534Y-42469103D01*
X87566548Y-42499548D01*
X87536103Y-42524534D01*
X87501364Y-42543102D01*
X87463677Y-42554535D01*
X87418339Y-42559000D01*
X86581661Y-42559000D01*
X86536323Y-42554535D01*
X86498636Y-42543102D01*
X86463897Y-42524534D01*
X86433452Y-42499548D01*
X86408466Y-42469103D01*
X86389898Y-42434364D01*
X86378465Y-42396677D01*
X86374000Y-42351339D01*
X86374000Y-41264661D01*
X86378465Y-41219323D01*
X86389898Y-41181636D01*
X86408466Y-41146897D01*
X86433452Y-41116452D01*
X86463897Y-41091466D01*
X86498636Y-41072898D01*
X86536323Y-41061465D01*
X86581661Y-41057000D01*
X87418339Y-41057000D01*
X87463677Y-41061465D01*
X87463677Y-41061465D01*
G37*
G36*
X85513677Y-41061465D02*
X85551364Y-41072898D01*
X85586103Y-41091466D01*
X85616548Y-41116452D01*
X85641534Y-41146897D01*
X85660102Y-41181636D01*
X85671535Y-41219323D01*
X85676000Y-41264661D01*
X85676000Y-42351339D01*
X85671535Y-42396677D01*
X85660102Y-42434364D01*
X85641534Y-42469103D01*
X85616548Y-42499548D01*
X85586103Y-42524534D01*
X85551364Y-42543102D01*
X85513677Y-42554535D01*
X85468339Y-42559000D01*
X84631661Y-42559000D01*
X84586323Y-42554535D01*
X84548636Y-42543102D01*
X84513897Y-42524534D01*
X84483452Y-42499548D01*
X84458466Y-42469103D01*
X84439898Y-42434364D01*
X84428465Y-42396677D01*
X84424000Y-42351339D01*
X84424000Y-41264661D01*
X84428465Y-41219323D01*
X84439898Y-41181636D01*
X84458466Y-41146897D01*
X84483452Y-41116452D01*
X84513897Y-41091466D01*
X84548636Y-41072898D01*
X84586323Y-41061465D01*
X84631661Y-41057000D01*
X85468339Y-41057000D01*
X85513677Y-41061465D01*
X85513677Y-41061465D01*
G37*
G36*
X83463677Y-41061465D02*
X83501364Y-41072898D01*
X83536103Y-41091466D01*
X83566548Y-41116452D01*
X83591534Y-41146897D01*
X83610102Y-41181636D01*
X83621535Y-41219323D01*
X83626000Y-41264661D01*
X83626000Y-42351339D01*
X83621535Y-42396677D01*
X83610102Y-42434364D01*
X83591534Y-42469103D01*
X83566548Y-42499548D01*
X83536103Y-42524534D01*
X83501364Y-42543102D01*
X83463677Y-42554535D01*
X83418339Y-42559000D01*
X82581661Y-42559000D01*
X82536323Y-42554535D01*
X82498636Y-42543102D01*
X82463897Y-42524534D01*
X82433452Y-42499548D01*
X82408466Y-42469103D01*
X82389898Y-42434364D01*
X82378465Y-42396677D01*
X82374000Y-42351339D01*
X82374000Y-41264661D01*
X82378465Y-41219323D01*
X82389898Y-41181636D01*
X82408466Y-41146897D01*
X82433452Y-41116452D01*
X82463897Y-41091466D01*
X82498636Y-41072898D01*
X82536323Y-41061465D01*
X82581661Y-41057000D01*
X83418339Y-41057000D01*
X83463677Y-41061465D01*
X83463677Y-41061465D01*
G37*
G36*
X83438677Y-37061465D02*
X83476364Y-37072898D01*
X83511103Y-37091466D01*
X83541548Y-37116452D01*
X83566534Y-37146897D01*
X83585102Y-37181636D01*
X83596535Y-37219323D01*
X83601000Y-37264661D01*
X83601000Y-38351339D01*
X83596535Y-38396677D01*
X83585102Y-38434364D01*
X83566534Y-38469103D01*
X83541548Y-38499548D01*
X83511103Y-38524534D01*
X83476364Y-38543102D01*
X83438677Y-38554535D01*
X83393339Y-38559000D01*
X82556661Y-38559000D01*
X82511323Y-38554535D01*
X82473636Y-38543102D01*
X82438897Y-38524534D01*
X82408452Y-38499548D01*
X82383466Y-38469103D01*
X82364898Y-38434364D01*
X82353465Y-38396677D01*
X82349000Y-38351339D01*
X82349000Y-37264661D01*
X82353465Y-37219323D01*
X82364898Y-37181636D01*
X82383466Y-37146897D01*
X82408452Y-37116452D01*
X82438897Y-37091466D01*
X82473636Y-37072898D01*
X82511323Y-37061465D01*
X82556661Y-37057000D01*
X83393339Y-37057000D01*
X83438677Y-37061465D01*
X83438677Y-37061465D01*
G37*
G36*
X85488677Y-37061465D02*
X85526364Y-37072898D01*
X85561103Y-37091466D01*
X85591548Y-37116452D01*
X85616534Y-37146897D01*
X85635102Y-37181636D01*
X85646535Y-37219323D01*
X85651000Y-37264661D01*
X85651000Y-38351339D01*
X85646535Y-38396677D01*
X85635102Y-38434364D01*
X85616534Y-38469103D01*
X85591548Y-38499548D01*
X85561103Y-38524534D01*
X85526364Y-38543102D01*
X85488677Y-38554535D01*
X85443339Y-38559000D01*
X84606661Y-38559000D01*
X84561323Y-38554535D01*
X84523636Y-38543102D01*
X84488897Y-38524534D01*
X84458452Y-38499548D01*
X84433466Y-38469103D01*
X84414898Y-38434364D01*
X84403465Y-38396677D01*
X84399000Y-38351339D01*
X84399000Y-37264661D01*
X84403465Y-37219323D01*
X84414898Y-37181636D01*
X84433466Y-37146897D01*
X84458452Y-37116452D01*
X84488897Y-37091466D01*
X84523636Y-37072898D01*
X84561323Y-37061465D01*
X84606661Y-37057000D01*
X85443339Y-37057000D01*
X85488677Y-37061465D01*
X85488677Y-37061465D01*
G37*
G36*
X89513677Y-37061465D02*
X89551364Y-37072898D01*
X89586103Y-37091466D01*
X89616548Y-37116452D01*
X89641534Y-37146897D01*
X89660102Y-37181636D01*
X89671535Y-37219323D01*
X89676000Y-37264661D01*
X89676000Y-38351339D01*
X89671535Y-38396677D01*
X89660102Y-38434364D01*
X89641534Y-38469103D01*
X89616548Y-38499548D01*
X89586103Y-38524534D01*
X89551364Y-38543102D01*
X89513677Y-38554535D01*
X89468339Y-38559000D01*
X88631661Y-38559000D01*
X88586323Y-38554535D01*
X88548636Y-38543102D01*
X88513897Y-38524534D01*
X88483452Y-38499548D01*
X88458466Y-38469103D01*
X88439898Y-38434364D01*
X88428465Y-38396677D01*
X88424000Y-38351339D01*
X88424000Y-37264661D01*
X88428465Y-37219323D01*
X88439898Y-37181636D01*
X88458466Y-37146897D01*
X88483452Y-37116452D01*
X88513897Y-37091466D01*
X88548636Y-37072898D01*
X88586323Y-37061465D01*
X88631661Y-37057000D01*
X89468339Y-37057000D01*
X89513677Y-37061465D01*
X89513677Y-37061465D01*
G37*
G36*
X87463677Y-37061465D02*
X87501364Y-37072898D01*
X87536103Y-37091466D01*
X87566548Y-37116452D01*
X87591534Y-37146897D01*
X87610102Y-37181636D01*
X87621535Y-37219323D01*
X87626000Y-37264661D01*
X87626000Y-38351339D01*
X87621535Y-38396677D01*
X87610102Y-38434364D01*
X87591534Y-38469103D01*
X87566548Y-38499548D01*
X87536103Y-38524534D01*
X87501364Y-38543102D01*
X87463677Y-38554535D01*
X87418339Y-38559000D01*
X86581661Y-38559000D01*
X86536323Y-38554535D01*
X86498636Y-38543102D01*
X86463897Y-38524534D01*
X86433452Y-38499548D01*
X86408466Y-38469103D01*
X86389898Y-38434364D01*
X86378465Y-38396677D01*
X86374000Y-38351339D01*
X86374000Y-37264661D01*
X86378465Y-37219323D01*
X86389898Y-37181636D01*
X86408466Y-37146897D01*
X86433452Y-37116452D01*
X86463897Y-37091466D01*
X86498636Y-37072898D01*
X86536323Y-37061465D01*
X86581661Y-37057000D01*
X87418339Y-37057000D01*
X87463677Y-37061465D01*
X87463677Y-37061465D01*
G37*
G36*
X83588677Y-35403465D02*
X83626364Y-35414898D01*
X83661103Y-35433466D01*
X83691548Y-35458452D01*
X83716534Y-35488897D01*
X83735102Y-35523636D01*
X83746535Y-35561323D01*
X83751000Y-35606661D01*
X83751000Y-36443339D01*
X83746535Y-36488677D01*
X83735102Y-36526364D01*
X83716534Y-36561103D01*
X83691548Y-36591548D01*
X83661103Y-36616534D01*
X83626364Y-36635102D01*
X83588677Y-36646535D01*
X83543339Y-36651000D01*
X82456661Y-36651000D01*
X82411323Y-36646535D01*
X82373636Y-36635102D01*
X82338897Y-36616534D01*
X82308452Y-36591548D01*
X82283466Y-36561103D01*
X82264898Y-36526364D01*
X82253465Y-36488677D01*
X82249000Y-36443339D01*
X82249000Y-35606661D01*
X82253465Y-35561323D01*
X82264898Y-35523636D01*
X82283466Y-35488897D01*
X82308452Y-35458452D01*
X82338897Y-35433466D01*
X82373636Y-35414898D01*
X82411323Y-35403465D01*
X82456661Y-35399000D01*
X83543339Y-35399000D01*
X83588677Y-35403465D01*
X83588677Y-35403465D01*
G37*
G36*
X83588677Y-33353465D02*
X83626364Y-33364898D01*
X83661103Y-33383466D01*
X83691548Y-33408452D01*
X83716534Y-33438897D01*
X83735102Y-33473636D01*
X83746535Y-33511323D01*
X83751000Y-33556661D01*
X83751000Y-34393339D01*
X83746535Y-34438677D01*
X83735102Y-34476364D01*
X83716534Y-34511103D01*
X83691548Y-34541548D01*
X83661103Y-34566534D01*
X83626364Y-34585102D01*
X83588677Y-34596535D01*
X83543339Y-34601000D01*
X82456661Y-34601000D01*
X82411323Y-34596535D01*
X82373636Y-34585102D01*
X82338897Y-34566534D01*
X82308452Y-34541548D01*
X82283466Y-34511103D01*
X82264898Y-34476364D01*
X82253465Y-34438677D01*
X82249000Y-34393339D01*
X82249000Y-33556661D01*
X82253465Y-33511323D01*
X82264898Y-33473636D01*
X82283466Y-33438897D01*
X82308452Y-33408452D01*
X82338897Y-33383466D01*
X82373636Y-33364898D01*
X82411323Y-33353465D01*
X82456661Y-33349000D01*
X83543339Y-33349000D01*
X83588677Y-33353465D01*
X83588677Y-33353465D01*
G37*
G36*
X85517184Y-23399938D02*
X85773268Y-23450876D01*
X86255719Y-23650714D01*
X86686989Y-23938879D01*
X86689917Y-23940836D01*
X87059164Y-24310083D01*
X87059166Y-24310086D01*
X87349286Y-24744281D01*
X87549124Y-25226732D01*
X87651000Y-25738899D01*
X87651000Y-26261101D01*
X87549124Y-26773268D01*
X87349286Y-27255719D01*
X87061121Y-27686989D01*
X87059164Y-27689917D01*
X86689917Y-28059164D01*
X86689914Y-28059166D01*
X86255719Y-28349286D01*
X85773268Y-28549124D01*
X85517184Y-28600062D01*
X85261102Y-28651000D01*
X84738898Y-28651000D01*
X84482816Y-28600062D01*
X84226732Y-28549124D01*
X83744281Y-28349286D01*
X83310086Y-28059166D01*
X83310083Y-28059164D01*
X82940836Y-27689917D01*
X82938879Y-27686989D01*
X82650714Y-27255719D01*
X82450876Y-26773268D01*
X82349000Y-26261101D01*
X82349000Y-25738899D01*
X82450876Y-25226732D01*
X82650714Y-24744281D01*
X82940834Y-24310086D01*
X82940836Y-24310083D01*
X83310083Y-23940836D01*
X83313011Y-23938879D01*
X83744281Y-23650714D01*
X84226732Y-23450876D01*
X84482816Y-23399938D01*
X84738898Y-23349000D01*
X85261102Y-23349000D01*
X85517184Y-23399938D01*
X85517184Y-23399938D01*
G37*
G36*
X48517184Y-23399938D02*
X48773268Y-23450876D01*
X49255719Y-23650714D01*
X49686989Y-23938879D01*
X49689917Y-23940836D01*
X50059164Y-24310083D01*
X50059166Y-24310086D01*
X50349286Y-24744281D01*
X50549124Y-25226732D01*
X50651000Y-25738899D01*
X50651000Y-26261101D01*
X50549124Y-26773268D01*
X50349286Y-27255719D01*
X50061121Y-27686989D01*
X50059164Y-27689917D01*
X49689917Y-28059164D01*
X49689914Y-28059166D01*
X49255719Y-28349286D01*
X48773268Y-28549124D01*
X48517184Y-28600062D01*
X48261102Y-28651000D01*
X47738898Y-28651000D01*
X47482816Y-28600062D01*
X47226732Y-28549124D01*
X46744281Y-28349286D01*
X46310086Y-28059166D01*
X46310083Y-28059164D01*
X45940836Y-27689917D01*
X45938879Y-27686989D01*
X45650714Y-27255719D01*
X45450876Y-26773268D01*
X45349000Y-26261101D01*
X45349000Y-25738899D01*
X45450876Y-25226732D01*
X45650714Y-24744281D01*
X45940834Y-24310086D01*
X45940836Y-24310083D01*
X46310083Y-23940836D01*
X46313011Y-23938879D01*
X46744281Y-23650714D01*
X47226732Y-23450876D01*
X47482816Y-23399938D01*
X47738898Y-23349000D01*
X48261102Y-23349000D01*
X48517184Y-23399938D01*
X48517184Y-23399938D01*
G37*
M02*
