EESchema Schematic File Version 4
LIBS:Lab1-cache
EELAYER 26 0
EELAYER END
$Descr A4 11693 8268
encoding utf-8
Sheet 2 5
Title ""
Date ""
Rev ""
Comp ""
Comment1 ""
Comment2 ""
Comment3 ""
Comment4 ""
$EndDescr
$Comp
L Thereminator:GP2Y0A02YK0F FrequencySensor?
U 1 1 5C61483C
P 5900 3400
AR Path="/5C61483C" Ref="FrequencySensor?"  Part="1" 
AR Path="/5C60A54E/5C61483C" Ref="FrequencySensor1"  Part="1" 
F 0 "FrequencySensor1" H 5900 3765 50  0000 C CNN
F 1 "GP2Y0A02YK0F" H 5900 3674 50  0000 C CNN
F 2 "" H 5900 3400 50  0001 C CNN
F 3 "" H 5900 3400 50  0001 C CNN
	1    5900 3400
	1    0    0    -1  
$EndComp
$Comp
L Thereminator:GP2Y0A02YK0F AmplitudeSensor?
U 1 1 5C614843
P 5900 2350
AR Path="/5C614843" Ref="AmplitudeSensor?"  Part="1" 
AR Path="/5C60A54E/5C614843" Ref="AmplitudeSensor1"  Part="1" 
F 0 "AmplitudeSensor1" H 5900 2715 50  0000 C CNN
F 1 "GP2Y0A02YK0F" H 5900 2624 50  0000 C CNN
F 2 "" H 5900 2350 50  0001 C CNN
F 3 "" H 5900 2350 50  0001 C CNN
	1    5900 2350
	1    0    0    -1  
$EndComp
$Comp
L power:GND #PWR?
U 1 1 5C61484A
P 5350 3500
AR Path="/5C61484A" Ref="#PWR?"  Part="1" 
AR Path="/5C60A54E/5C61484A" Ref="#PWR017"  Part="1" 
F 0 "#PWR017" H 5350 3250 50  0001 C CNN
F 1 "GND" V 5355 3372 50  0000 R CNN
F 2 "" H 5350 3500 50  0001 C CNN
F 3 "" H 5350 3500 50  0001 C CNN
	1    5350 3500
	0    1    1    0   
$EndComp
$Comp
L power:GND #PWR?
U 1 1 5C614850
P 5350 2450
AR Path="/5C614850" Ref="#PWR?"  Part="1" 
AR Path="/5C60A54E/5C614850" Ref="#PWR015"  Part="1" 
F 0 "#PWR015" H 5350 2200 50  0001 C CNN
F 1 "GND" V 5355 2322 50  0000 R CNN
F 2 "" H 5350 2450 50  0001 C CNN
F 3 "" H 5350 2450 50  0001 C CNN
	1    5350 2450
	0    1    1    0   
$EndComp
Wire Wire Line
	5450 3500 5350 3500
Wire Wire Line
	5450 2250 5350 2250
Text HLabel 7200 2350 2    50   Output ~ 0
Amplitude
Wire Wire Line
	6350 2350 6700 2350
Text HLabel 7200 3400 2    50   Output ~ 0
Frequency
$Comp
L power:+5V #PWR014
U 1 1 5C61762D
P 5350 2250
F 0 "#PWR014" H 5350 2100 50  0001 C CNN
F 1 "+5V" V 5365 2378 50  0000 L CNN
F 2 "" H 5350 2250 50  0001 C CNN
F 3 "" H 5350 2250 50  0001 C CNN
	1    5350 2250
	0    -1   -1   0   
$EndComp
Wire Wire Line
	5450 2450 5350 2450
$Comp
L power:+5V #PWR016
U 1 1 5C61769C
P 5350 3300
F 0 "#PWR016" H 5350 3150 50  0001 C CNN
F 1 "+5V" V 5365 3428 50  0000 L CNN
F 2 "" H 5350 3300 50  0001 C CNN
F 3 "" H 5350 3300 50  0001 C CNN
	1    5350 3300
	0    -1   -1   0   
$EndComp
Wire Wire Line
	5350 3300 5450 3300
$Comp
L Device:R R?
U 1 1 5C656E1F
P 6850 3400
AR Path="/5C656E1F" Ref="R?"  Part="1" 
AR Path="/5C60A54E/5C656E1F" Ref="R4"  Part="1" 
F 0 "R4" V 6643 3400 50  0000 C CNN
F 1 "R" V 6734 3400 50  0000 C CNN
F 2 "" V 6780 3400 50  0001 C CNN
F 3 "~" H 6850 3400 50  0001 C CNN
	1    6850 3400
	0    1    1    0   
$EndComp
$Comp
L Device:C C?
U 1 1 5C656E26
P 7100 3650
AR Path="/5C656E26" Ref="C?"  Part="1" 
AR Path="/5C60A54E/5C656E26" Ref="C13"  Part="1" 
F 0 "C13" H 6985 3604 50  0000 R CNN
F 1 "C" H 6985 3695 50  0000 R CNN
F 2 "" H 7138 3500 50  0001 C CNN
F 3 "~" H 7100 3650 50  0001 C CNN
	1    7100 3650
	-1   0    0    1   
$EndComp
Wire Wire Line
	7000 3400 7100 3400
Wire Wire Line
	7100 3400 7100 3500
$Comp
L Device:R R?
U 1 1 5C656F73
P 6850 2350
AR Path="/5C656F73" Ref="R?"  Part="1" 
AR Path="/5C60A54E/5C656F73" Ref="R3"  Part="1" 
F 0 "R3" V 6643 2350 50  0000 C CNN
F 1 "R" V 6734 2350 50  0000 C CNN
F 2 "" V 6780 2350 50  0001 C CNN
F 3 "~" H 6850 2350 50  0001 C CNN
	1    6850 2350
	0    1    1    0   
$EndComp
$Comp
L Device:C C?
U 1 1 5C656FAD
P 7100 2600
AR Path="/5C656FAD" Ref="C?"  Part="1" 
AR Path="/5C60A54E/5C656FAD" Ref="C12"  Part="1" 
F 0 "C12" H 6985 2554 50  0000 R CNN
F 1 "C" H 6985 2645 50  0000 R CNN
F 2 "" H 7138 2450 50  0001 C CNN
F 3 "~" H 7100 2600 50  0001 C CNN
	1    7100 2600
	-1   0    0    1   
$EndComp
Wire Wire Line
	7000 2350 7100 2350
Wire Wire Line
	7100 2350 7100 2450
Wire Wire Line
	7100 2350 7200 2350
Connection ~ 7100 2350
Wire Wire Line
	7100 3400 7200 3400
Connection ~ 7100 3400
$Comp
L power:GND #PWR018
U 1 1 5C6574A5
P 7100 2800
F 0 "#PWR018" H 7100 2550 50  0001 C CNN
F 1 "GND" H 7105 2627 50  0000 C CNN
F 2 "" H 7100 2800 50  0001 C CNN
F 3 "" H 7100 2800 50  0001 C CNN
	1    7100 2800
	1    0    0    -1  
$EndComp
$Comp
L power:GND #PWR019
U 1 1 5C6574C3
P 7100 3850
F 0 "#PWR019" H 7100 3600 50  0001 C CNN
F 1 "GND" H 7105 3677 50  0000 C CNN
F 2 "" H 7100 3850 50  0001 C CNN
F 3 "" H 7100 3850 50  0001 C CNN
	1    7100 3850
	1    0    0    -1  
$EndComp
Wire Wire Line
	7100 3850 7100 3800
Wire Wire Line
	7100 2800 7100 2750
Wire Wire Line
	6350 3400 6700 3400
$EndSCHEMATC
