EESchema Schematic File Version 4
LIBS:Lab1-cache
EELAYER 26 0
EELAYER END
$Descr A4 11693 8268
encoding utf-8
Sheet 3 4
Title ""
Date ""
Rev ""
Comp ""
Comment1 ""
Comment2 ""
Comment3 ""
Comment4 ""
$EndDescr
Wire Wire Line
	4850 2850 4600 2850
$Comp
L Lab1-rescue:LM1117ADJ-ADJ U?
U 1 1 5C6244F0
P 4300 2600
AR Path="/5C6244F0" Ref="U?"  Part="1" 
AR Path="/5C61E9F8/5C6244F0" Ref="U2"  Part="1" 
F 0 "U2" H 4425 2725 50  0000 C CNN
F 1 "LM1117ADJ" H 4425 2634 50  0000 C CNN
F 2 "Package_TO_SOT_SMD:SOT-223" H 4350 2650 50  0001 C CNN
F 3 "" H 4350 2650 50  0001 C CNN
	1    4300 2600
	1    0    0    -1  
$EndComp
Wire Wire Line
	4850 2850 5050 2850
Wire Wire Line
	5050 2850 5050 2700
Wire Wire Line
	4850 2700 5050 2700
Connection ~ 5050 2700
$Comp
L Lab1-rescue:R-Device R?
U 1 1 5C6244FD
P 5200 3000
AR Path="/5C6244FD" Ref="R?"  Part="1" 
AR Path="/5C61E9F8/5C6244FD" Ref="R5"  Part="1" 
F 0 "R5" H 5270 3046 50  0000 L CNN
F 1 "2.2" H 5270 2955 50  0000 L CNN
F 2 "Resistor_SMD:R_0805_2012Metric_Pad1.15x1.40mm_HandSolder" V 5130 3000 50  0001 C CNN
F 3 "~" H 5200 3000 50  0001 C CNN
	1    5200 3000
	1    0    0    -1  
$EndComp
$Comp
L Lab1-rescue:C-Device C?
U 1 1 5C62450D
P 3750 2900
AR Path="/5C62450D" Ref="C?"  Part="1" 
AR Path="/5C61E9F8/5C62450D" Ref="C16"  Part="1" 
F 0 "C16" H 3865 2946 50  0000 L CNN
F 1 "100n" H 3865 2855 50  0000 L CNN
F 2 "Capacitor_SMD:C_0805_2012Metric_Pad1.15x1.40mm_HandSolder" H 3788 2750 50  0001 C CNN
F 3 "~" H 3750 2900 50  0001 C CNN
	1    3750 2900
	1    0    0    -1  
$EndComp
Wire Wire Line
	3750 2700 3750 2750
Connection ~ 3750 2700
Wire Wire Line
	3750 2700 4000 2700
$Comp
L Lab1-rescue:GND-power #PWR?
U 1 1 5C624517
P 3750 3100
AR Path="/5C624517" Ref="#PWR?"  Part="1" 
AR Path="/5C61E9F8/5C624517" Ref="#PWR024"  Part="1" 
F 0 "#PWR024" H 3750 2850 50  0001 C CNN
F 1 "GND" H 3755 2927 50  0000 C CNN
F 2 "" H 3750 3100 50  0001 C CNN
F 3 "" H 3750 3100 50  0001 C CNN
	1    3750 3100
	1    0    0    -1  
$EndComp
$Comp
L Lab1-rescue:CP-Device C?
U 1 1 5C62451D
P 3350 2900
AR Path="/5C62451D" Ref="C?"  Part="1" 
AR Path="/5C61E9F8/5C62451D" Ref="C15"  Part="1" 
F 0 "C15" H 3468 2946 50  0000 L CNN
F 1 "10u" H 3468 2855 50  0000 L CNN
F 2 "Capacitor_SMD:C_Elec_6.3x7.7" H 3388 2750 50  0001 C CNN
F 3 "~" H 3350 2900 50  0001 C CNN
	1    3350 2900
	1    0    0    -1  
$EndComp
$Comp
L Lab1-rescue:GND-power #PWR?
U 1 1 5C624524
P 3350 3100
AR Path="/5C624524" Ref="#PWR?"  Part="1" 
AR Path="/5C61E9F8/5C624524" Ref="#PWR023"  Part="1" 
F 0 "#PWR023" H 3350 2850 50  0001 C CNN
F 1 "GND" H 3355 2927 50  0000 C CNN
F 2 "" H 3350 3100 50  0001 C CNN
F 3 "" H 3350 3100 50  0001 C CNN
	1    3350 3100
	1    0    0    -1  
$EndComp
$Comp
L Lab1-rescue:C-Device C?
U 1 1 5C62452A
P 2850 2900
AR Path="/5C62452A" Ref="C?"  Part="1" 
AR Path="/5C61E9F8/5C62452A" Ref="C14"  Part="1" 
F 0 "C14" H 2965 2946 50  0000 L CNN
F 1 "100n" H 2965 2855 50  0000 L CNN
F 2 "Capacitor_SMD:C_0805_2012Metric_Pad1.15x1.40mm_HandSolder" H 2888 2750 50  0001 C CNN
F 3 "~" H 2850 2900 50  0001 C CNN
	1    2850 2900
	1    0    0    -1  
$EndComp
$Comp
L Lab1-rescue:GND-power #PWR?
U 1 1 5C624531
P 2850 3100
AR Path="/5C624531" Ref="#PWR?"  Part="1" 
AR Path="/5C61E9F8/5C624531" Ref="#PWR022"  Part="1" 
F 0 "#PWR022" H 2850 2850 50  0001 C CNN
F 1 "GND" H 2855 2927 50  0000 C CNN
F 2 "" H 2850 3100 50  0001 C CNN
F 3 "" H 2850 3100 50  0001 C CNN
	1    2850 3100
	1    0    0    -1  
$EndComp
$Comp
L Lab1-rescue:+5V-power #PWR?
U 1 1 5C624537
P 2850 2650
AR Path="/5C624537" Ref="#PWR?"  Part="1" 
AR Path="/5C61E9F8/5C624537" Ref="#PWR021"  Part="1" 
F 0 "#PWR021" H 2850 2500 50  0001 C CNN
F 1 "+5V" H 2865 2823 50  0000 C CNN
F 2 "" H 2850 2650 50  0001 C CNN
F 3 "" H 2850 2650 50  0001 C CNN
	1    2850 2650
	1    0    0    -1  
$EndComp
$Comp
L Lab1-rescue:R-Device R?
U 1 1 5C62455B
P 5200 3500
AR Path="/5C62455B" Ref="R?"  Part="1" 
AR Path="/5C61E9F8/5C62455B" Ref="R6"  Part="1" 
F 0 "R6" H 5270 3546 50  0000 L CNN
F 1 "3.3" H 5270 3455 50  0000 L CNN
F 2 "Resistor_SMD:R_0805_2012Metric_Pad1.15x1.40mm_HandSolder" V 5130 3500 50  0001 C CNN
F 3 "~" H 5200 3500 50  0001 C CNN
	1    5200 3500
	1    0    0    -1  
$EndComp
$Comp
L Lab1-rescue:GND-power #PWR?
U 1 1 5C624562
P 5200 3750
AR Path="/5C624562" Ref="#PWR?"  Part="1" 
AR Path="/5C61E9F8/5C624562" Ref="#PWR025"  Part="1" 
F 0 "#PWR025" H 5200 3500 50  0001 C CNN
F 1 "GND" H 5205 3577 50  0000 C CNN
F 2 "" H 5200 3750 50  0001 C CNN
F 3 "" H 5200 3750 50  0001 C CNN
	1    5200 3750
	1    0    0    -1  
$EndComp
Connection ~ 2850 2700
$Comp
L Lab1-rescue:C-Device C?
U 1 1 5C625BC4
P 5700 2900
AR Path="/5C625BC4" Ref="C?"  Part="1" 
AR Path="/5C61E9F8/5C625BC4" Ref="C17"  Part="1" 
F 0 "C17" H 5815 2946 50  0000 L CNN
F 1 "100n" H 5815 2855 50  0000 L CNN
F 2 "Capacitor_SMD:C_0805_2012Metric_Pad1.15x1.40mm_HandSolder" H 5738 2750 50  0001 C CNN
F 3 "~" H 5700 2900 50  0001 C CNN
	1    5700 2900
	1    0    0    -1  
$EndComp
Wire Wire Line
	5700 2700 5700 2750
Wire Wire Line
	5700 2700 6200 2700
$Comp
L Lab1-rescue:+3.3V-power #PWR?
U 1 1 5C625BCD
P 6200 2650
AR Path="/5C625BCD" Ref="#PWR?"  Part="1" 
AR Path="/5C61E9F8/5C625BCD" Ref="#PWR027"  Part="1" 
F 0 "#PWR027" H 6200 2500 50  0001 C CNN
F 1 "+3.3V" H 6215 2823 50  0000 C CNN
F 2 "" H 6200 2650 50  0001 C CNN
F 3 "" H 6200 2650 50  0001 C CNN
	1    6200 2650
	1    0    0    -1  
$EndComp
$Comp
L Lab1-rescue:CP-Device C?
U 1 1 5C625BD3
P 6200 2900
AR Path="/5C625BD3" Ref="C?"  Part="1" 
AR Path="/5C61E9F8/5C625BD3" Ref="C18"  Part="1" 
F 0 "C18" H 6318 2946 50  0000 L CNN
F 1 "10u" H 6318 2855 50  0000 L CNN
F 2 "Capacitor_SMD:CP_Elec_6.3x7.7" H 6238 2750 50  0001 C CNN
F 3 "~" H 6200 2900 50  0001 C CNN
	1    6200 2900
	1    0    0    -1  
$EndComp
Wire Wire Line
	6200 2750 6200 2700
$Comp
L Lab1-rescue:GND-power #PWR?
U 1 1 5C625BDD
P 6200 3100
AR Path="/5C625BDD" Ref="#PWR?"  Part="1" 
AR Path="/5C61E9F8/5C625BDD" Ref="#PWR028"  Part="1" 
F 0 "#PWR028" H 6200 2850 50  0001 C CNN
F 1 "GND" H 6205 2927 50  0000 C CNN
F 2 "" H 6200 3100 50  0001 C CNN
F 3 "" H 6200 3100 50  0001 C CNN
	1    6200 3100
	1    0    0    -1  
$EndComp
$Comp
L Lab1-rescue:GND-power #PWR?
U 1 1 5C625BE3
P 5700 3100
AR Path="/5C625BE3" Ref="#PWR?"  Part="1" 
AR Path="/5C61E9F8/5C625BE3" Ref="#PWR026"  Part="1" 
F 0 "#PWR026" H 5700 2850 50  0001 C CNN
F 1 "GND-power" H 5705 2927 50  0000 C CNN
F 2 "" H 5700 3100 50  0001 C CNN
F 3 "" H 5700 3100 50  0001 C CNN
	1    5700 3100
	1    0    0    -1  
$EndComp
Connection ~ 5700 2700
Wire Wire Line
	4300 3100 4300 3250
Wire Wire Line
	4300 3250 5200 3250
Wire Wire Line
	5200 3350 5200 3250
Wire Wire Line
	5200 3650 5200 3750
Wire Wire Line
	5050 2700 5200 2700
Wire Wire Line
	5200 3150 5200 3250
Connection ~ 5200 3250
Wire Wire Line
	5200 2850 5200 2700
Connection ~ 5200 2700
Wire Wire Line
	5200 2700 5700 2700
Wire Wire Line
	2850 2700 3350 2700
Wire Wire Line
	3350 2750 3350 2700
Connection ~ 3350 2700
Wire Wire Line
	3350 2700 3750 2700
Wire Wire Line
	2850 2750 2850 2700
Wire Wire Line
	2850 3100 2850 3050
Wire Wire Line
	3350 3100 3350 3050
Wire Wire Line
	3750 3100 3750 3050
Wire Wire Line
	6200 3100 6200 3050
Wire Wire Line
	5700 3050 5700 3100
Wire Wire Line
	6200 2700 6200 2650
Connection ~ 6200 2700
Wire Wire Line
	2850 2700 2850 2650
Text HLabel 2700 2700 0    50   Input ~ 0
USB-Power
Wire Wire Line
	2700 2700 2850 2700
$EndSCHEMATC
